{"failedCount":0,"prefixedPath":"classpath:SparkLink\/users\/Get_API.feature","packageQualifiedName":"SparkLink.users.Get_API","loopIndex":-1,"relativePath":"SparkLink\/users\/Get_API.feature","scenarioResults":[{"sectionIndex":0,"stepResults":[{"result":{"nanos":1678500,"startTime":1711554670275,"endTime":1711554670277,"millis":1.6785,"status":"passed"},"step":{"background":true,"line":4,"prefix":"*","index":0,"text":"url 'https:\/\/reqres.in\/api'"},"stepLog":"16:51:10.253 karate.env system property was: null \n"},{"result":{"nanos":453200,"startTime":1711554670279,"endTime":1711554670279,"millis":0.4532,"status":"passed"},"step":{"line":7,"prefix":"Given","index":0,"text":"path 'users'"}},{"result":{"nanos":2214000,"startTime":1711554670279,"endTime":1711554670281,"millis":2.214,"status":"passed"},"step":{"line":8,"prefix":"And","index":1,"text":"param page = 2"}},{"result":{"nanos":646912700,"startTime":1711554670282,"endTime":1711554670929,"millis":646.9127,"status":"passed"},"step":{"line":9,"prefix":"When","index":2,"text":"method get"},"stepLog":"16:51:10.528 request:\n1 > GET https:\/\/reqres.in\/api\/users?page=2\n1 > Host: reqres.in\n1 > Connection: Keep-Alive\n1 > User-Agent: Apache-HttpClient\/4.5.14 (Java\/11.0.22)\n1 > Accept-Encoding: gzip,deflate\n\n\n16:51:10.910 response time in milliseconds: 379\n1 < 200\n1 < Date: Wed, 27 Mar 2024 15:51:11 GMT\n1 < Content-Type: application\/json; charset=utf-8\n1 < Transfer-Encoding: chunked\n1 < Connection: keep-alive\n1 < Report-To: {\"group\":\"heroku-nel\",\"max_age\":3600,\"endpoints\":[{\"url\":\"https:\/\/nel.heroku.com\/reports?ts=1711523317&sid=c4c9725f-1ab0-44d8-820f-430df2718e11&s=S%2BKht1MHFdF1nv7tc15lWzzxzKVxHxpNXqwr3qQniuE%3D\"}]}\n1 < Reporting-Endpoints: heroku-nel=https:\/\/nel.heroku.com\/reports?ts=1711523317&sid=c4c9725f-1ab0-44d8-820f-430df2718e11&s=S%2BKht1MHFdF1nv7tc15lWzzxzKVxHxpNXqwr3qQniuE%3D\n1 < Nel: {\"report_to\":\"heroku-nel\",\"max_age\":3600,\"success_fraction\":0.005,\"failure_fraction\":0.05,\"response_headers\":[\"Via\"]}\n1 < X-Powered-By: Express\n1 < Access-Control-Allow-Origin: *\n1 < Etag: W\/\"406-ut0vzoCuidvyMf8arZpMpJ6ZRDw\"\n1 < Via: 1.1 vegur\n1 < Cache-Control: max-age=14400\n1 < CF-Cache-Status: REVALIDATED\n1 < Vary: Accept-Encoding\n1 < Server: cloudflare\n1 < CF-RAY: 86b08a584aa90c41-MRS\n{\"page\":2,\"per_page\":6,\"total\":12,\"total_pages\":2,\"data\":[{\"id\":7,\"email\":\"michael.lawson@reqres.in\",\"first_name\":\"Michael\",\"last_name\":\"Lawson\",\"avatar\":\"https:\/\/reqres.in\/img\/faces\/7-image.jpg\"},{\"id\":8,\"email\":\"lindsay.ferguson@reqres.in\",\"first_name\":\"Lindsay\",\"last_name\":\"Ferguson\",\"avatar\":\"https:\/\/reqres.in\/img\/faces\/8-image.jpg\"},{\"id\":9,\"email\":\"tobias.funke@reqres.in\",\"first_name\":\"Tobias\",\"last_name\":\"Funke\",\"avatar\":\"https:\/\/reqres.in\/img\/faces\/9-image.jpg\"},{\"id\":10,\"email\":\"byron.fields@reqres.in\",\"first_name\":\"Byron\",\"last_name\":\"Fields\",\"avatar\":\"https:\/\/reqres.in\/img\/faces\/10-image.jpg\"},{\"id\":11,\"email\":\"george.edwards@reqres.in\",\"first_name\":\"George\",\"last_name\":\"Edwards\",\"avatar\":\"https:\/\/reqres.in\/img\/faces\/11-image.jpg\"},{\"id\":12,\"email\":\"rachel.howell@reqres.in\",\"first_name\":\"Rachel\",\"last_name\":\"Howell\",\"avatar\":\"https:\/\/reqres.in\/img\/faces\/12-image.jpg\"}],\"support\":{\"url\":\"https:\/\/reqres.in\/#support-heading\",\"text\":\"To keep ReqRes free, contributions towards server costs are appreciated!\"}}\n\n"},{"result":{"nanos":16400,"startTime":1711554670929,"endTime":1711554670929,"millis":0.0164,"status":"passed"},"step":{"line":10,"prefix":"Then","index":3,"text":"status 200"}},{"result":{"nanos":25322700,"startTime":1711554670929,"endTime":1711554670954,"millis":25.3227,"status":"passed"},"step":{"line":11,"prefix":"And","index":4,"text":"match response.data[0].id == 7"}}],"executorName":"main","line":6,"name":"Successful API Request","description":"","durationMillis":676.5975,"startTime":1711554670157,"failed":false,"refId":"[1:6]","endTime":1711554670955,"exampleIndex":-1}],"callDepth":0,"name":"Testing Users API","description":"","resultDate":"2024-03-27 04:51:10 PM","durationMillis":676.5975,"passedCount":1}